[gd_scene load_steps=3 format=2]

[ext_resource path="res://Bomb.gd" type="Script" id=1]
[ext_resource path="res://gfx/bomb.svg" type="Texture" id=2]

[node name="Bomb" type="Node2D"]
script = ExtResource( 1 )

[node name="Offset" type="Node2D" parent="."]

[node name="Sprite" type="Sprite" parent="Offset"]
scale = Vector2( 0.25, 0.25 )
texture = ExtResource( 2 )
centered = false

