[gd_scene load_steps=2 format=2]

[ext_resource path="res://gfx/x.svg" type="Texture" id=1]

[node name="SpawnX" type="Sprite"]
scale = Vector2( 0.25, 0.25 )
texture = ExtResource( 1 )
centered = false

